[
{"id" : 1,"name" : {"en" : "Some Secondary School Coursework","fr" : "Bac non validé"},"active" : 1},
{"id" : 2,"name" : {"en" : "Secondary School or equivalent","fr" : "Lycée, Niveau Bac"},"active" : 1},
{"id" : 3,"name" : {"en" : "'A' Level/Higher or Equivalent","fr" : "Bac Professionnel, BEP, CAP"},"active" : 1},
{"id" : 4,"name" : {"en" : "Vocational","fr" : "DUT, BTS, Bac + 2"},"active" : 1},
{"id" : 5,"name" : {"en" : "Some College Coursework Completed","fr" : "Diplôme non validé"},"active" : 1},
{"id" : 6,"name" : {"en" : "HND/HNC or equivalent","fr" : "Licence, Bac + 3"},"active" : 1},
{"id" : 7,"name" : {"en" : "Bachelor's Degree","fr" : "Maîtrise, IEP, IUP, Bac + 4"},"active" : 1},
{"id" : 8,"name" : {"en" : "Master's Degree","fr" : "DESS, DEA, Grandes Ecoles, Bac + 5"},"active" : 1},
{"id" : 9,"name" : {"en" : "Doctorate","fr" : "Doctorat, 3ème cycle"},"active" : 1},
{"id" : 10,"name" : {"en" : "Professional","fr" : "Expert, Recherche"},"active" : 1}
]
