[
{"id" : 1, "name" : {"en" : "Full time", "fr" : "CDI"}, "active" : 1},
{"id" : 2, "name" : {"en" : "Contract", "fr" : "CDD"}, "active" : 1},
{"id" : 3, "name" : {"en" : "Internship", "fr" : "Stage"}, "active" : 1}
]